timestamp,frame_rate,error_count,bandwidth
2023-08-09T16:44:15.280542,1.8597139511445901,0,18.28173202533178
2023-08-09T16:44:15.819822,16.71314522925558,0,164.29690286167408
2023-08-09T16:44:16.525330,21.867086528786448,0,214.9622074125823
2023-08-09T16:44:17.245397,25.573691614966332,0,251.39961805176503
2023-08-09T16:44:17.977899,26.575435793209877,0,261.24716402157037
2023-08-09T16:44:18.677607,27.193374177576967,0,267.32174551525264
2023-08-09T16:44:19.414712,27.611961223394157,0,271.4366236104539
2023-08-09T16:44:20.120790,27.891587392426672,0,274.18546070251114
2023-08-09T16:44:20.859782,28.118686988570197,0,276.41794057244044
2023-08-09T16:44:21.576728,28.826868826003334,0,283.37965130714315
2023-08-09T16:44:22.276312,28.93746251115784,0,284.46683146968604
2023-08-09T16:44:23.009949,29.030651395802003,0,285.382915481292
2023-08-09T16:44:23.715198,29.08929595514643,0,285.95941495747144
2023-08-09T16:44:24.454660,29.139700273925765,0,286.45490957279986
2023-08-09T16:44:25.175001,29.52404550061944,0,290.2331768892893
2023-08-09T16:44:25.874185,29.5534895654526,0,290.52262382422526
2023-08-09T16:44:26.607521,29.583563892580244,0,290.8182664896208
2023-08-09T16:44:27.310440,29.599906739149343,0,290.97892320853373
2023-08-09T16:44:28.049180,29.60991036500199,0,291.07726285211555
2023-08-09T16:44:28.754980,29.616116004831856,0,291.1382667738991
2023-08-09T16:44:29.473855,29.870928825873975,0,293.6431787298715
2023-08-09T16:44:30.206227,29.876965092319136,0,293.702517643534
2023-08-09T16:44:30.939412,29.88282686182947,0,293.76014118252846
2023-08-09T16:44:31.643906,29.877983203656388,0,293.7125260852237
2023-08-09T16:44:32.349733,29.874638913859606,0,293.67965037880543
2023-08-09T16:44:33.070906,30.006963785402192,0,294.98045679601773
2023-08-09T16:44:33.804737,30.05994502913956,0,295.5012836144535
2023-08-09T16:44:34.537697,30.058289412802626,0,295.4850082436149
2023-08-09T16:44:35.239452,30.05389239353384,0,295.4417837853951
2023-08-09T16:44:35.978752,30.04342275148868,0,295.3388630162343
2023-08-09T16:44:36.683213,30.034566402938836,0,295.25180156744995
2023-08-09T16:44:37.402386,30.184605041366076,0,296.7267413986451
2023-08-09T16:44:38.136078,30.179641546598145,0,296.67794825967843
2023-08-09T16:44:38.835245,30.174216789041964,0,296.62462072299815
2023-08-09T16:44:39.572928,30.163785978390383,0,296.5220816819688
2023-08-09T16:44:40.278484,30.152734286312185,0,296.4134391281633
2023-08-09T16:44:41.017820,30.14272849336635,0,296.3150781811886
2023-08-09T16:44:41.734124,30.2678951860477,0,297.5455168369233
2023-08-09T16:44:42.433907,30.26136042497137,0,297.48127752163856
2023-08-09T16:44:43.168256,30.254598412366867,0,297.41480423293126
2023-08-09T16:44:43.873261,30.242247008041105,0,297.2933849878473
